{
  "project_info": {
    "project_number": "13328486672",
    "project_id": "my-vnexpress-ba53a",
    "storage_bucket": "my-vnexpress-ba53a.appspot.com"
  },
  "client": [
    {
      "client_info": {
        "mobilesdk_app_id": "1:13328486672:android:e34960b12bb41871e41595",
        "android_client_info": {
          "package_name": "com.example.flutter_my_vnexpress"
        }
      },
      "oauth_client": [
        {
          "client_id": "13328486672-rgij3bkjll4sslthgulkdf3fjoka3chf.apps.googleusercontent.com",
          "client_type": 3
        }
      ],
      "api_key": [
        {
          "current_key": "AIzaSyB38-9wCLolvXdU-GTtZU4N-4fb1U4eaBc"
        }
      ],
      "services": {
        "appinvite_service": {
          "other_platform_oauth_client": [
            {
              "client_id": "13328486672-rgij3bkjll4sslthgulkdf3fjoka3chf.apps.googleusercontent.com",
              "client_type": 3
            }
          ]
        }
      }
    }
  ],
  "configuration_version": "1"
}